module github.com/dbut2/reverse-proxy

go 1.21

require (
	github.com/stretchr/testify v1.8.4
	google.golang.org/api v0.160.0
)

require (
	cloud.google.com/go/compute v1.23.3 // indirect
	cloud.google.com/go/compute/metadata v0.2.3 // indirect
	github.com/davecgh/go-spew v1.1.1 // indirect
	github.com/felixge/httpsnoop v1.0.4 // indirect
	github.com/go-logr/logr v1.4.1 // indirect
	github.com/go-logr/stdr v1.2.2 // indirect
	github.com/golang/groupcache v0.0.0-20210331224755-41bb18bfe9da // indirect
	github.com/golang/protobuf v1.5.3 // indirect
	github.com/google/s2a-go v0.1.7 // indirect
	github.com/googleapis/enterprise-certificate-proxy v0.3.2 // indirect
	github.com/pmezard/go-difflib v1.0.0 // indirect
	go.opencensus.io v0.24.0 // indirect
	go.opentelemetry.io/contrib/instrumentation/net/http/otelhttp v0.47.0 // indirect
	go.opentelemetry.io/otel v1.22.0 // indirect
	go.opentelemetry.io/otel/metric v1.22.0 // indirect
	go.opentelemetry.io/otel/trace v1.22.0 // indirect
	golang.org/x/crypto v0.18.0 // indirect
	golang.org/x/net v0.20.0 // indirect
	golang.org/x/oauth2 v0.16.0 // indirect
	golang.org/x/sys v0.16.0 // indirect
	golang.org/x/text v0.14.0 // indirect
	google.golang.org/appengine v1.6.8 // indirect
	google.golang.org/genproto/googleapis/rpc v0.0.0-20240116215550-a9fa1716bcac // indirect
	google.golang.org/grpc v1.60.1 // indirect
	google.golang.org/protobuf v1.32.0 // indirect
	gopkg.in/yaml.v3 v3.0.1 // indirect
)
